<?xml version="1.0" encoding="utf-8"?>
<!-- Generator: Adobe Illustrator 16.0.0, SVG Export Plug-In . SVG Version: 6.00 Build 0)  -->
<!DOCTYPE svg PUBLIC "-//W3C//DTD SVG 1.1//EN" "http://www.w3.org/Graphics/SVG/1.1/DTD/svg11.dtd">
<svg version="1.1" id="Ebene_1" xmlns="http://www.w3.org/2000/svg" xmlns:xlink="http://www.w3.org/1999/xlink" x="0px" y="0px"
	 width="566.929px" height="566.929px" viewBox="0 0 566.929 566.929" enable-background="new 0 0 566.929 566.929"
	 xml:space="preserve">
<g>
	<g>
		<path fill="#FFFFFF" d="M448.847,218.441h-0.653v-29.988c0-10.35-8.418-18.769-18.772-18.769H265.476l-12.165-31.928
			c-1.27-3.315-4.445-5.509-7.997-5.509H178.59c-2.282,0-4.463,0.907-6.071,2.523c-1.604,1.617-2.503,3.803-2.486,6.083
			l-0.078,44.875h17.114l0.013-36.368h52.331l12.169,31.926c1.262,3.315,4.446,5.511,7.997,5.511h169.838
			c0.914,0,1.664,0.744,1.664,1.654v29.988H383.18c-1.053,0-2.051,0.176-3.025,0.429l1.638,4.302h-0.505
			c10.352,0,18.773,8.418,18.773,18.769v29.99h0.651c6.728,0,12.183,5.45,12.183,12.181v84.256h16.526
			c0.183,0,0.359-0.051,0.539-0.055h18.887c6.727,0,12.183-5.449,12.183-12.186V230.622
			C461.027,223.894,455.574,218.441,448.847,218.441z"/>
		<path fill="#FFFFFF" d="M384.667,284.757h-0.651v-29.986c0-10.35-8.42-18.769-18.772-18.769H201.297l-12.165-31.928
			c-1.27-3.316-4.445-5.509-7.997-5.509h-66.618c-2.279,0-4.462,0.906-6.071,2.524c-1.604,1.617-2.503,3.801-2.486,6.083
			l-0.061,47.599v161.14c0,10.35,8.426,18.77,18.771,18.77h240.573c0.183,0,0.358-0.049,0.537-0.055h18.887
			c6.727,0,12.185-5.451,12.185-12.188v-125.5C396.847,290.212,391.394,284.757,384.667,284.757z M366.898,284.757H154.552
			c-6.729,0-12.184,5.455-12.184,12.189v120.619h-17.702c-0.911,0-1.657-0.744-1.657-1.654v-161.19l-0.111-39.042h52.331
			l12.169,31.927c1.261,3.314,4.445,5.511,7.994,5.511h169.84c0.914,0,1.658,0.744,1.658,1.654v29.986H366.898z"/>
	</g>
</g>
</svg>
