<?xml version="1.0" encoding="utf-8"?>
<!-- Generator: Adobe Illustrator 16.0.0, SVG Export Plug-In . SVG Version: 6.00 Build 0)  -->
<!DOCTYPE svg PUBLIC "-//W3C//DTD SVG 1.1//EN" "http://www.w3.org/Graphics/SVG/1.1/DTD/svg11.dtd">
<svg version="1.1" id="Ebene_1" xmlns="http://www.w3.org/2000/svg" xmlns:xlink="http://www.w3.org/1999/xlink" x="0px" y="0px"
	 width="612px" height="792px" viewBox="0 0 612 792" enable-background="new 0 0 612 792" xml:space="preserve">
<g>
	<g>
		<path d="M-1952.892,254.016h-277.848c-7.344,0-13.464-6.12-13.464-13.464c0-7.344,6.12-13.464,13.464-13.464h277.848
			c7.344,0,13.464,6.12,13.464,13.464C-1939.428,247.896-1945.548,254.016-1952.892,254.016z"/>
	</g>
	<g>
		<path d="M-2091.816,254.016c-6.12,0-11.016-3.672-12.852-9.792l-16.524-63.036L-2275.416,80.82
			c-6.12-4.284-7.956-12.24-3.672-18.36c4.284-6.12,12.24-7.956,18.36-3.672l162.792,105.876l19.584,72.828
			c1.836,7.344-2.448,14.688-9.18,16.524C-2089.368,254.016-2090.592,254.016-2091.816,254.016z"/>
	</g>
	<g>
		<path d="M-2021.436,660.384h-141.984c-6.12,0-11.628-4.284-12.852-10.403l-76.5-365.363c-0.612-3.672,0-7.956,2.448-11.016
			c2.448-3.06,6.12-4.896,10.404-4.896h295.596c4.284,0,7.956,1.836,10.404,4.896s3.672,7.344,2.448,11.016l-76.5,365.363
			C-2009.808,656.1-2015.316,660.384-2021.436,660.384z M-2153.016,634.068h120.564l70.992-338.438h-262.548L-2153.016,634.068z"/>
	</g>
</g>
<g>
	<g>
		<path d="M-1200.132,248.508c-35.496,0-64.872-28.764-64.872-64.872c0-35.496,28.764-64.872,64.872-64.872
			c35.496,0,64.872,28.764,64.872,64.872C-1135.26,219.744-1164.636,248.508-1200.132,248.508z M-1200.132,145.692
			c-20.808,0-37.944,17.136-37.944,37.944c0,20.808,17.136,37.944,37.944,37.944c20.808,0,37.944-17.136,37.944-37.944
			C-1162.188,162.828-1179.324,145.692-1200.132,145.692z"/>
	</g>
	<g>
		<path d="M-1425.96,565.524h-1.224c-3.672,0-88.74-5.51-113.832-7.346c-14.688-1.224-53.856-4.282-53.856-37.332
			c0-7.956,3.672-33.659,46.512-36.106c22.644-1.226,79.56-5.508,98.532-6.732l42.84-61.812l22.032,15.3l-50.184,72.216l-6.12,0.612
			c-0.612,0-77.724,5.508-105.264,6.73c-3.672,0-21.42,1.836-21.42,9.792c0,1.836,0,8.568,28.764,10.404
			c24.48,1.836,106.488,6.732,113.22,7.344c6.732,0,12.852-3.672,17.136-9.792l45.288-64.872l22.032,15.302l-45.288,64.871
			C-1395.972,557.568-1410.66,565.524-1425.96,565.524z"/>
	</g>
	<g>
		<path d="M-1312.128,692.82L-1312.128,692.82c-3.672,0-7.956-0.612-11.628-2.448c-11.628-4.896-28.152-22.032-4.896-77.724
			l36.72-90.576l-89.964-59.978c-36.72-31.212-26.316-61.198-10.404-89.352l0.612-0.612l58.14-86.292l-26.928-6.12l-72.828,38.556
			c-6.12,3.672-17.748,7.956-28.152,7.956c-12.852,0-18.972-6.12-21.42-9.792c-10.404-15.3-4.284-33.66,18.36-53.244l0.612-0.612
			l74.664-57.528c8.568-6.12,19.584-7.956,29.988-6.12l89.964,19.584c6.12,1.224,11.628,4.284,16.524,7.956l44.063,29.988
			c15.912,11.016,9.18,38.556,2.448,48.348l-72.828,116.892l67.932,46.512c17.748,12.24,24.48,35.496,15.3,54.468l-0.612,0.612
			l-62.424,118.729C-1277.244,676.908-1293.768,692.82-1312.128,692.82z M-1312.74,665.892c0.612,0,0.612,0,0.612,0
			c1.224,0,11.016-1.224,29.988-35.495l61.812-118.115c3.061-7.956,0.612-16.524-6.12-21.42l-89.352-61.2l86.904-138.924
			c1.836-2.448,3.06-9.792,3.06-12.852l-44.064-29.988c-1.836-1.224-3.672-2.448-5.508-3.06l-89.964-19.584
			c-3.06-0.612-6.732,0-9.18,1.836l-73.44,56.304c-9.18,7.956-12.852,13.464-13.464,15.912c4.284,0,10.404-1.836,14.076-4.284
			l0.612-0.612l82.008-43.452l75.276,16.524l-79.56,118.116c-14.688,25.091-15.912,37.332,4.284,55.08l106.488,70.38
			l-45.288,111.386C-1317.024,653.652-1313.964,664.056-1312.74,665.892z"/>
	</g>
	<g>
		<path d="M-1198.908,416.808h-1.224c-14.688-1.836-26.928-14.074-31.824-25.092l-20.196-47.736l24.48-10.404l19.584,47.736
			c1.836,4.284,6.12,8.568,9.792,9.18c9.18,0,63.036-1.224,78.336-2.448c18.36-1.224,24.48-3.672,26.316-4.896
			c0-2.448-2.448-4.284-20.196-5.508l-71.604-6.12l-41.004-92.412l24.48-11.016l34.271,78.336l55.692,4.896
			c15.912,1.224,45.9,3.06,44.676,34.272c-1.224,26.928-39.168,28.764-51.408,29.375c-17.136,1.226-78.336,2.448-80.784,2.448
			L-1198.908,416.808z"/>
	</g>
</g>
<g>
	<path d="M1425.96-284.544c-6.732,0-12.24-4.284-12.853-11.016l-54.469-293.76l-25.704,86.292c-1.836,5.508-6.73,9.792-12.852,9.792
		h-159.12v-26.928h148.716l39.168-129.744c1.836-6.12,7.345-9.792,13.464-9.792c6.12,0.612,11.018,4.896,12.24,11.016
		l49.572,267.444l66.708-468.18c1.224-6.732,6.731-11.628,12.852-11.628c6.732,0,12.24,4.896,13.466,11.016l65.482,392.292
		l37.944-56.916c2.448-3.672,6.731-6.12,11.016-6.12h130.356v26.928h-123.014l-52.632,78.948c-3.06,4.284-8.567,6.732-14.076,5.508
		c-5.508-1.224-9.18-5.508-10.402-11.016l-56.916-340.271l-66.097,465.12C1438.2-289.44,1432.692-284.544,1425.96-284.544
		L1425.96-284.544z"/>
</g>
<g>
	<path d="M8043.516,595.512c-4.896,0-9.18-1.836-12.238-5.508L7877.053,411.3c-5.508-6.73-4.896-16.524,1.836-22.644
		c6.732-5.508,16.523-4.896,22.645,1.836l139.536,161.566l222.156-369.036c4.284-7.344,14.688-9.792,22.032-5.508
		c7.344,4.284,9.792,14.688,5.508,22.032l-233.783,388.008c-2.448,4.284-7.344,7.346-12.24,7.956
		C8044.74,595.512,8044.128,595.512,8043.516,595.512z"/>
</g>
<g>
	<g>
		<path fill="#FFFFFF" d="M263.714,331.83l-5.638-1.411c-10.219-2.818-21.496-4.581-32.772-5.285
			c-11.276-0.704-22.905-0.704-33.476,0.705l-5.639,0.705l-2.115-5.287c-7.047-17.619-10.219-39.465-8.458-62.018
			c3.877-50.744,28.896-89.152,58.849-89.152c0.705,0,1.762,0,2.466,0c30.658,2.114,51.448,44.752,47.572,97.257
			c-1.762,22.553-7.752,44.049-17.619,60.258L263.714,331.83z M211.209,309.278c4.934,0,9.866,0.351,14.8,0.703
			c10.219,0.707,20.438,2.115,29.953,4.581c7.048-13.39,11.277-30.657,12.687-48.629c3.171-42.285-12.334-79.286-33.477-80.695
			c-0.352,0-1.058,0-1.41,0c-18.324,0-40.172,30.304-43.343,75.057c-1.409,17.973,0.706,35.238,5.639,49.686
			C200.99,309.278,206.276,309.278,211.209,309.278z"/>
	</g>
	<g>
		<path fill="#FFFFFF" d="M228.475,433.316c-22.199,0-40.875-28.541-41.933-65.191c0-3.524,0-7.049,0-10.22l0.352-7.047
			l78.935-2.467l0.705,7.048c0.353,3.523,0.705,7.048,0.705,10.219c1.057,37.351-15.505,66.954-38.41,68.009L228.475,433.316z
			 M201.695,365.659c0,0.704,0,1.409,0,2.114c1.057,29.602,14.8,50.392,26.428,50.392h0.352
			c11.981-0.352,24.667-21.848,23.61-52.152c0-0.707,0-1.411,0-2.115L201.695,365.659z"/>
	</g>
	<g>
		<path fill="#FFFFFF" d="M348.287,227.876l-2.819-4.934c-9.515-16.209-15.857-37.706-17.62-60.258
			c-4.229-52.153,16.916-94.792,47.221-96.906c0.704,0,1.762,0,2.466,0c29.953,0,54.973,38.409,58.849,89.153
			c1.762,22.552-1.409,44.753-8.457,62.019l-2.114,5.286l-5.638-0.705c-10.571-1.057-21.848-1.409-33.478-0.704
			c-11.628,0.704-22.552,2.82-32.771,5.285L348.287,227.876z M377.534,80.931c-0.352,0-1.057,0-1.409,0
			c-21.143,1.41-36.647,38.411-33.477,80.698c1.409,17.971,5.639,34.885,12.686,48.629c9.513-2.116,19.381-3.524,29.952-4.582
			c10.22-0.705,20.439-0.705,30.307,0c4.933-14.448,6.694-31.714,5.637-49.686C418.06,111.237,396.211,80.931,377.534,80.931z"/>
	</g>
	<g>
		<path fill="#FFFFFF" d="M383.525,329.716h-0.705c-22.905-0.706-39.819-30.658-38.41-68.011c0-3.524,0.353-7.047,0.705-10.219
			l0.706-7.049l78.934,2.467l0.352,7.048c0.353,3.522,0.353,7.047,0,10.218C424.05,300.82,405.726,329.716,383.525,329.716z
			 M359.563,260.295c0,0.706,0,1.41,0,2.115c-1.058,30.305,11.63,51.449,23.61,52.152h0.352c11.628,0,25.725-20.79,26.429-50.391
			c0-0.705,0-1.41,0-2.114L359.563,260.295z"/>
	</g>
</g>
<g>
	<g>
		
			<rect x="-1321.148" y="964.19" transform="matrix(-0.7071 -0.7071 0.7071 -0.7071 -3007.5334 923.1295)" width="17.136" height="240.511"/>
	</g>
	<g>
		<path d="M-1363.077,1215.365c-2.448,0-4.284-0.612-6.12-2.448l-71.604-70.991c-3.061-3.061-3.061-8.567,0-12.24
			c3.06-3.061,8.568-3.061,12.24,0l70.992,70.991c3.061,3.062,3.061,8.568,0,12.24
			C-1358.792,1214.753-1361.241,1215.365-1363.077,1215.365z"/>
	</g>
	<g>
		<path d="M-1402.856,1211.693c-1.836,0-3.672-0.612-4.896-1.836l-26.928-26.93c-3.061-3.06-3.061-7.344,0-10.402
			c3.06-3.062,7.344-3.062,10.404,0l26.928,26.928c3.06,3.06,3.06,7.344,0,10.404
			C-1399.185,1210.469-1401.021,1211.693-1402.856,1211.693z"/>
	</g>
	<g>
		<path d="M-1197.225,1047.064c-2.448,0-4.284-0.611-6.12-2.447l-70.992-71.604c-3.06-3.061-3.06-8.567,0-12.239
			c3.061-3.062,8.568-3.062,12.24,0l70.992,70.991c3.06,3.061,3.06,8.567,0,12.239
			C-1192.94,1046.453-1194.776,1047.064-1197.225,1047.064z"/>
	</g>
	<g>
		<path d="M-1431.009,1214.753c-2.448,0-4.284-0.612-6.12-2.448c-3.06-3.06-3.06-8.566,0-12.238l13.464-13.465
			c3.06-3.061,8.568-3.061,12.24,0c3.06,3.061,3.06,8.567,0,12.239l-13.464,13.464
			C-1426.725,1214.141-1429.172,1214.753-1431.009,1214.753z"/>
	</g>
	<g>
		<path d="M-1199.673,1006.061c-1.836,0-3.672-0.61-4.896-1.836l-26.929-26.928c-3.06-3.06-3.06-7.344,0-10.404
			c3.061-3.06,7.345-3.06,10.404,0l26.928,26.93c3.061,3.06,3.061,7.344,0,10.402
			C-1196.001,1005.449-1197.837,1006.061-1199.673,1006.061z"/>
	</g>
	<g>
		<path d="M-1211.301,991.985c-2.448,0-4.284-0.612-6.12-2.448c-3.06-3.062-3.06-8.568,0-12.24l13.464-13.464
			c3.061-3.06,8.568-3.06,12.24,0c3.061,3.06,3.061,8.567,0,12.24l-13.464,13.464
			C-1207.017,991.373-1209.465,991.985-1211.301,991.985z"/>
	</g>
</g>
<g>
	<g>
		<g>
			<path d="M-90.576-566.064h-216.036c-3.672,0-6.732-1.224-9.18-3.672c-2.448-2.448-3.672-6.12-3.672-9.792
				c0-2.448,1.836-217.872,0-344.556c-0.612-42.84,9.18-74.664,28.764-94.248c18.972-18.972,42.228-23.256,58.752-23.256
				c12.852,0,22.032,2.448,22.644,2.448c6.12,1.836,9.792,6.732,9.792,12.852c0,65.484,46.512,119.952,111.384,130.356
				c6.732,1.224,11.016,6.73,11.016,13.464v302.94C-77.112-572.184-83.232-566.064-90.576-566.064z M-293.148-592.992h189.108
				v-279.072c-67.932-15.912-116.892-73.44-121.788-143.208c-11.628-1.224-31.212,0-46.512,14.688
				c-14.688,14.688-21.42,40.392-21.42,75.276C-291.312-815.76-292.536-641.952-293.148-592.992z"/>
		</g>
		<g>
			<path d="M174.42-566.064H-42.228c-7.344,0-13.464-6.12-13.464-13.464v-302.939c0-6.732,4.896-12.24,11.016-13.464
				C20.196-906.336,67.32-960.804,67.32-1026.288c0-6.732,4.896-12.24,11.628-13.464c1.836,0,46.512-6.732,78.948,25.704
				c20.196,20.196,29.988,50.184,29.988,89.352c0,115.668,0,344.556,0,344.556c0,3.672-1.224,6.731-3.672,9.18
				C181.152-567.288,177.48-566.064,174.42-566.064z M-28.764-592.992h189.108c0-50.796,0-232.56,0-331.092
				c0-31.824-7.344-55.692-22.644-70.38c-14.688-14.688-33.048-17.748-45.288-18.36c-5.508,69.156-54.468,126.072-121.788,141.372
				C-28.764-871.452-28.764-592.992-28.764-592.992z"/>
		</g>
		<g>
			<path d="M-64.872-910.62c-67.32,0-121.788-54.468-121.788-121.788c0-67.32,54.468-121.788,121.788-121.788
				c67.32,0,121.788,54.468,121.788,121.788C56.916-965.088,2.448-910.62-64.872-910.62z M-64.872-1127.88
				c-52.632,0-94.86,42.84-94.86,94.86c0,52.632,42.84,94.86,94.86,94.86c52.632,0,94.86-42.84,94.86-94.86
				S-12.852-1127.88-64.872-1127.88z"/>
		</g>
	</g>
	<g>
		<rect x="-78.336" y="-1141.344" width="26.928" height="33.048"/>
	</g>
	<g>
		<rect x="10.404" y="-1045.872" width="33.048" height="26.928"/>
	</g>
	<g>
		<rect x="-173.196" y="-1045.872" width="33.048" height="26.928"/>
	</g>
	<g>
		<path d="M-63.648-1020.78l14.076-15.3c0,0-59.976-52.632-65.484-46.512C-119.952-1077.084-63.648-1020.78-63.648-1020.78"/>
	</g>
	<g>
		<circle cx="-62.424" cy="-1033.02" r="18.36"/>
	</g>
</g>
<g>
	<g>
		<g>
			<path d="M-1467.576-811.476c7.956-4.284,15.912-7.956,24.48-10.404c0-1.224-0.612-2.448-1.224-3.672
				C-1452.888-821.268-1460.232-816.984-1467.576-811.476L-1467.576-811.476z"/>
		</g>
		<g>
			<path d="M-1544.076-607.068c-17.748,19.584-40.392,43.452-48.96,53.244c0,0-1.224,0.612-1.836,1.224
				c0-0.612-1.224-1.224-1.836-1.836c-47.736-54.468-127.296-146.88-127.296-231.336c0-71.604,58.14-129.744,129.744-129.744
				c51.408,0,95.472,29.988,116.28,72.828c7.344-4.896,14.688-9.18,22.644-12.852c-25.704-51.408-78.336-86.292-138.924-86.292
				c-85.68,0-155.448,68.544-155.448,155.448c0,90.576,77.724,183.6,134.64,248.472c0,0,9.18,10.404,20.808,10.404h1.224
				c11.016,0,20.196-10.404,20.808-10.404c6.732-7.956,25.092-27.54,40.392-44.064
				C-1537.344-589.32-1541.016-597.888-1544.076-607.068z"/>
		</g>
	</g>
	<g>
		<path d="M-1383.12-848.808c-85.68,0-155.448,68.544-155.448,155.448c0,90.576,77.724,183.6,134.64,248.472
			c0,0,9.18,10.404,20.808,10.404h1.224c11.016,0,20.196-10.404,20.808-10.404c56.916-64.872,134.64-157.896,134.64-248.472
			C-1227.672-779.652-1296.828-848.808-1383.12-848.808 M-1381.284-462.024c0,0-1.224,0.612-1.836,1.224
			c0-0.612-1.224-1.224-1.836-1.836c-47.736-54.468-127.296-146.88-127.296-231.336c0-71.604,58.14-129.744,129.744-129.744
			s129.744,58.14,129.744,129.744C-1253.376-608.904-1333.548-517.104-1381.284-462.024"/>
	</g>
</g>
<g>
	<g>
		<path fill="#BC311E" d="M1888.95,361.105c-25.64,0-46.509-21.42-46.509-47.736c0-26.315,20.869-47.735,46.509-47.735
			c25.638,0,46.507,21.42,46.507,47.735C1935.457,339.686,1914.588,361.105,1888.95,361.105z M1888.95,280.934
			c-17.291,0-31.603,14.688-31.603,32.436s14.312,32.437,31.603,32.437s31.601-14.688,31.601-32.437
			S1906.241,280.934,1888.95,280.934z"/>
	</g>
	<g>
		<path fill="#BC311E" d="M2000.447,313.369c0,31.212-12.521,59.977-32.793,80.784l11.329,11.628
			c23.253-23.868,36.966-56.304,36.966-92.412c0-36.107-14.31-68.544-36.966-92.412l-11.329,11.628
			C1987.927,253.394,2000.447,282.157,2000.447,313.369"/>
	</g>
	<g>
		<path fill="#BC311E" d="M1778.049,313.369c0-31.212,12.521-59.976,32.793-80.783l-11.328-11.628
			c-23.254,23.867-37.563,56.304-37.563,92.411c0,36.108,14.311,68.544,37.563,92.412l11.328-11.628
			C1790.569,373.346,1778.049,344.581,1778.049,313.369"/>
	</g>
	<g>
		<path fill="#BC311E" d="M1960.499,313.369c0,20.196-7.751,38.557-20.868,52.021l11.328,11.628
			c16.099-16.524,25.639-38.556,25.639-63.648c0-24.479-9.54-47.124-25.639-63.647l-11.328,11.628
			C1952.748,274.813,1960.499,293.174,1960.499,313.369"/>
	</g>
	<g>
		<path fill="#BC311E" d="M1817.4,313.369c0-20.195,7.751-38.556,20.867-52.02l-11.327-11.628
			c-16.1,16.523-25.639,38.556-25.639,63.647c0,24.48,9.539,47.124,25.638,63.648l11.328-11.628
			C1825.748,351.926,1817.4,333.565,1817.4,313.369"/>
	</g>
	<g>
		<path fill="#BC311E" d="M1888.95,496.971c-4.174,0-7.155-3.672-7.155-7.344V360.493c0-4.283,3.578-7.344,7.155-7.344
			c4.174,0,7.153,3.672,7.153,7.344v129.134C1896.104,493.91,1893.124,496.971,1888.95,496.971z"/>
	</g>
</g>
<g>
	<g>
		<path d="M-635.256-611.352h-318.24c-7.344,0-13.464-6.12-13.464-13.464v-318.24c0-7.344,6.12-13.464,13.464-13.464h318.24
			c7.344,0,13.464,6.12,13.464,13.464v318.24C-621.792-617.472-627.912-611.352-635.256-611.352z M-940.032-638.28h291.924v-291.924
			h-291.924V-638.28z"/>
	</g>
	<g>
		<path d="M-717.876-693.972h-153.612c-7.344,0-13.464-6.12-13.464-13.464v-153.612c0-7.344,6.12-13.464,13.464-13.464h153.612
			c7.344,0,13.464,6.12,13.464,13.464v153.612C-704.412-699.48-710.532-693.972-717.876-693.972z M-858.024-720.288h127.296
			v-127.296h-127.296V-720.288z"/>
	</g>
	<g>
		<path d="M-902.088-991.404c-7.344,0-13.464-6.12-13.464-13.464v-61.812c0-7.344,6.12-13.464,13.464-13.464
			c7.344,0,13.464,6.12,13.464,13.464v61.812C-888.624-997.524-894.744-991.404-902.088-991.404z"/>
	</g>
	<g>
		<path d="M-794.376-991.404c-7.344,0-13.464-6.12-13.464-13.464v-61.812c0-7.344,6.12-13.464,13.464-13.464
			s13.464,6.12,13.464,13.464v61.812C-780.912-997.524-787.032-991.404-794.376-991.404z"/>
	</g>
	<g>
		<path d="M-686.664-991.404c-7.344,0-13.464-6.12-13.464-13.464v-61.812c0-7.344,6.12-13.464,13.464-13.464
			c7.344,0,13.464,6.12,13.464,13.464v61.812C-673.2-997.524-679.32-991.404-686.664-991.404z"/>
	</g>
	<g>
		<path d="M-902.088-480.996c-7.344,0-13.464-6.12-13.464-13.464v-61.812c0-7.344,6.12-13.464,13.464-13.464
			c7.344,0,13.464,6.12,13.464,13.464v61.812C-888.624-487.116-894.744-480.996-902.088-480.996z"/>
	</g>
	<g>
		<path d="M-794.376-480.996c-7.344,0-13.464-6.12-13.464-13.464v-61.812c0-7.344,6.12-13.464,13.464-13.464
			s13.464,6.12,13.464,13.464v61.812C-780.912-487.116-787.032-480.996-794.376-480.996z"/>
	</g>
	<g>
		<path d="M-686.664-480.996c-7.344,0-13.464-6.12-13.464-13.464v-61.812c0-7.344,6.12-13.464,13.464-13.464
			c7.344,0,13.464,6.12,13.464,13.464v61.812C-673.2-487.116-679.32-480.996-686.664-480.996z"/>
	</g>
	<g>
		<path d="M-506.736-878.184h-61.2c-7.344,0-13.464-6.12-13.464-13.464s6.12-13.464,13.464-13.464h61.2
			c7.344,0,13.464,6.12,13.464,13.464S-499.392-878.184-506.736-878.184z"/>
	</g>
	<g>
		<path d="M-506.736-770.472h-61.2c-7.344,0-13.464-6.12-13.464-13.464s6.12-13.464,13.464-13.464h61.2
			c7.344,0,13.464,6.12,13.464,13.464S-499.392-770.472-506.736-770.472z"/>
	</g>
	<g>
		<path d="M-506.736-662.76h-61.2c-7.344,0-13.464-6.12-13.464-13.464c0-7.344,6.12-13.464,13.464-13.464h61.2
			c7.344,0,13.464,6.12,13.464,13.464C-493.272-668.88-499.392-662.76-506.736-662.76z"/>
	</g>
	<g>
		<path d="M-1018.368-878.184h-61.2c-7.344,0-13.464-6.12-13.464-13.464s6.12-13.464,13.464-13.464h61.2
			c7.344,0,13.464,6.12,13.464,13.464S-1011.024-878.184-1018.368-878.184z"/>
	</g>
	<g>
		<path d="M-1018.368-770.472h-61.2c-7.344,0-13.464-6.12-13.464-13.464s6.12-13.464,13.464-13.464h61.2
			c7.344,0,13.464,6.12,13.464,13.464S-1011.024-770.472-1018.368-770.472z"/>
	</g>
	<g>
		<path d="M-1018.368-662.76h-61.2c-7.344,0-13.464-6.12-13.464-13.464c0-7.344,6.12-13.464,13.464-13.464h61.2
			c7.344,0,13.464,6.12,13.464,13.464C-1004.904-668.88-1011.024-662.76-1018.368-662.76z"/>
	</g>
</g>
<g>
	<g>
		<g>
			<path d="M2583.864-412.452l-73.44-42.228c-6.12-3.672-8.568-11.628-4.896-18.36c3.672-6.12,11.628-8.568,18.36-4.896
				l50.795,29.376c23.256-40.392,35.496-86.292,35.496-132.804c0-146.88-119.341-266.832-266.832-266.832
				c-91.801,0-176.257,46.512-225.217,123.624c-26.928,42.84-41.615,91.8-41.615,142.596c0,47.124,12.239,92.412,35.496,132.804
				l53.243-26.316c6.732-3.06,14.688-0.611,17.748,6.12c3.062,6.732,0.612,14.688-6.12,17.748l-75.274,36.72l-6.12-9.792
				c-29.988-47.124-45.9-101.592-45.9-157.284c0-55.692,15.912-110.16,45.288-157.284c54.468-85.068,146.88-136.476,247.86-136.476
				c161.566,0,293.146,131.58,293.146,293.148c0,56.304-15.912,111.384-46.512,158.508L2583.864-412.452z"/>
		</g>
		<g>
			<path d="M2520.828-681.732c-4.896,0-9.18-2.448-11.628-6.732c-3.673-6.732-1.226-14.688,5.508-18.36l55.692-30.6
				c6.73-3.672,14.688-1.224,18.358,5.508s1.226,14.688-5.508,18.36l-55.691,30.6
				C2525.112-682.344,2522.664-681.732,2520.828-681.732z"/>
		</g>
		<g>
			<path d="M2343.96-774.144c-7.344,0-13.464-6.12-13.464-13.464v-74.052c0-7.344,6.12-13.464,13.464-13.464
				s13.464,6.12,13.464,13.464v74.052C2357.424-780.264,2351.304-774.144,2343.96-774.144z"/>
		</g>
		<g>
			<path d="M2166.48-681.732c-2.448,0-4.896-0.612-6.732-1.836l-58.752-36.72c-6.12-3.672-7.956-12.24-4.284-18.36
				c3.673-6.12,12.24-7.956,18.36-4.284l58.752,36.72c6.119,3.672,7.955,12.24,4.283,18.36
				C2175.048-683.568,2170.764-681.732,2166.48-681.732z"/>
		</g>
	</g>
	<g>
		<path d="M2438.208-404.496h-178.704c-7.344,0-13.464-6.12-13.464-13.464s6.12-13.464,13.464-13.464h178.704
			c7.344,0,13.464,6.12,13.464,13.464S2445.552-404.496,2438.208-404.496z"/>
	</g>
	<path d="M2343.96-645.624c-28.765,0-52.021,23.256-52.021,52.02s23.256,52.02,52.021,52.02s52.021-23.256,52.021-52.02
		S2372.725-645.624,2343.96-645.624z M2343.96-566.064c-14.688,0-26.928-12.24-26.928-26.928c0-14.688,12.239-26.928,26.928-26.928
		s26.928,12.24,26.928,26.928C2370.888-578.304,2358.648-566.064,2343.96-566.064z"/>
	<g>
		<path d="M2332.944-618.084c-7.956,0-12.24,0-12.24,0l0.612,9.792C2323.764-612.576,2328.048-615.636,2332.944-618.084z"/>
		<path d="M2354.977-618.084c9.791,4.284,16.523,13.464,16.523,25.092c0,14.688-12.24,26.928-26.928,26.928
			c-8.568,0-15.912-4.284-20.81-10.404l1.226,17.748c0,0,225.216-19.584,223.992-42.229
			C2547.145-616.86,2418.012-618.696,2354.977-618.084z"/>
	</g>
</g>
<g>
	<g>
		<path d="M-496.944,225.864L-496.944,225.864c-26.928,0-51.408-17.136-60.588-42.84c-12.24-33.66,5.508-70.38,38.556-82.62
			c7.344-2.448,14.688-3.672,22.032-3.672c26.928,0,51.408,17.136,60.588,42.84c12.24,33.66-5.508,70.38-38.556,82.62
			C-482.256,224.64-489.6,225.864-496.944,225.864z M-496.944,123.048c-4.284,0-8.568,0.612-12.852,2.448
			c-19.584,7.344-29.988,28.764-22.644,48.348c5.508,14.688,19.584,25.092,35.496,25.092l0,0c4.284,0,8.568-0.612,12.852-2.448
			c19.584-7.344,29.988-28.764,22.644-48.348C-466.956,133.452-481.032,123.048-496.944,123.048z"/>
	</g>
	<g>
		<path d="M-648.72,692.82c-4.284,0-8.568-1.226-12.852-3.672c-32.436-18.36-16.524-47.124-7.956-62.426
			c2.448-4.282,4.896-8.566,6.12-12.238c11.628-29.376,28.764-80.784,30.6-85.682L-612,450.468l25.704,6.732l-20.808,79.56
			c-0.612,2.448-18.36,56.306-31.212,88.128c-1.836,4.896-4.896,10.404-7.344,14.688c-11.628,20.808-9.18,22.032-2.448,26.314
			c6.12-3.672,18.36-25.092,23.868-36.106c25.704-45.9,28.764-51.408,28.764-51.408l2.448-4.284
			c8.568-16.522,11.628-22.644,17.136-38.556l9.18-24.48l25.092,9.182l-9.18,24.479c-6.732,18.36-9.792,25.092-20.808,46.513
			l-2.448,4.283h-0.612c-3.06,5.508-10.404,18.974-26.316,47.124c-15.3,27.54-25.704,44.677-41.004,48.96
			C-644.436,692.208-646.272,692.82-648.72,692.82z"/>
	</g>
	<g>
		<path d="M-477.972,690.984L-477.972,690.984c-11.628,0-27.54-7.956-53.856-66.708l-0.612-1.226l-18.972-56.916l-28.152-84.456
			c-39.168-17.136-39.78-47.734-34.272-78.336l16.524-80.784l-11.016,5.508l-43.452,50.184c-1.224,1.224-2.448,3.06-3.672,4.284
			c-11.016,14.688-20.808,26.314-33.048,26.314c-3.672,0-7.344-1.224-10.404-3.672c-25.092-18.36,4.284-71.604,5.508-74.052
			l0.612-0.612l47.736-77.112c6.12-8.568,21.42-17.748,31.824-19.584l61.812-17.748c6.12-0.612,12.24,0,18.36,1.836l52.02,12.852
			c18.36,4.896,22.032,33.048,18.972,44.676l-31.212,147.492l-4.896,19.584c0,22.646,0,23.256,2.448,45.9l33.048,96.084
			c9.18,32.436,18.36,89.964-6.12,102.815C-471.24,690.372-474.912,690.984-477.972,690.984z M-507.348,614.484
			c12.852,28.15,21.42,41.004,26.316,46.512c1.836-10.404,1.836-33.66-7.344-66.708l-33.66-97.92v-1.836
			c-2.448-25.093-2.448-25.704-2.448-51.408v-1.836l5.508-22.646l31.824-147.492c0.612-3.06,0-9.792-1.836-12.852l-52.02-12.852
			c-1.836-0.612-3.672-1.224-4.896-0.612l-61.2,17.136c-3.672,0.612-12.24,6.12-14.688,8.568l-47.124,75.276
			c-4.896,8.568-8.568,18.36-10.404,26.316c1.224-1.836,2.448-3.672,3.672-4.896c1.836-1.836,3.06-3.672,4.284-5.508l0.612-0.612
			l47.124-53.856l65.484-34.272l-29.376,135.864c-4.896,28.765-2.448,41.005,23.256,50.797l6.12,2.446l33.048,96.696
			L-507.348,614.484z"/>
	</g>
	<g>
		<path d="M-341.496,440.676c-10.404,0-23.868-4.284-41.616-9.792c-2.448-0.61-5.508-1.836-7.344-2.448
			c-21.42-6.73-59.976-24.479-61.812-25.092l-3.06-1.224l-1.836-3.062c-4.284-5.508-4.896-6.73-5.508-7.344
			c-0.612-0.612-0.612-0.612-6.12-8.568l-0.612-1.224l-0.612-1.836l-23.256-55.692l24.48-10.404l22.644,53.856
			c3.06,4.284,4.284,5.508,4.284,6.12c0.612,0.612,1.224,1.836,4.284,5.508c9.792,4.284,38.556,17.136,55.692,22.644
			c2.448,0.612,4.896,1.836,7.956,2.448c4.896,1.836,13.464,4.282,21.42,6.73c-11.016-10.404-33.048-22.032-44.676-27.54
			c-8.568-4.284-15.3-7.956-20.808-11.628l-2.448-1.836l-26.928-46.512l-41.616-67.932l22.644-14.076l42.228,68.544l23.868,41.616
			c4.284,2.448,9.792,5.508,15.912,8.568c29.376,15.3,65.484,34.272,65.484,61.813c0,6.118-2.448,11.016-7.344,14.074
			C-331.092,439.452-335.988,440.676-341.496,440.676z"/>
	</g>
</g>
<g>
	<g>
		<path d="M6311.557,673.848c-148.717,0-269.893-121.176-269.893-269.892s121.176-269.892,269.893-269.892
			s269.893,121.176,269.893,269.892C6582.061,531.252,6466.393,673.848,6311.557,673.848z M6311.557,159.768
			c-134.028,0-243.576,108.936-243.576,243.576c0,134.642,108.937,243.576,243.576,243.576
			c137.088,0,243.576-130.968,243.576-243.576C6555.132,269.316,6445.584,159.768,6311.557,159.768z"/>
	</g>
	<g>
		<path d="M6421.104,492.696c-2.447,0-5.508-0.612-7.344-2.448l-109.548-75.888c-3.672-2.448-5.509-6.732-5.509-11.018V252.18
			c0-7.344,6.121-13.464,13.465-13.464c7.343,0,13.463,6.12,13.463,13.464v144.432l103.428,71.604
			c6.121,4.284,7.345,12.24,3.672,18.36C6429.061,490.86,6425.389,492.696,6421.104,492.696z"/>
	</g>
	<g>
		<path d="M6568.596,416.808h-40.392c-7.343,0-13.464-6.119-13.464-13.464c0-7.344,6.121-13.464,13.464-13.464h40.392
			c7.345,0,13.465,6.12,13.465,13.464C6582.061,410.688,6575.939,416.808,6568.596,416.808z"/>
	</g>
	<g>
		<path d="M6096.132,416.808h-41.616c-7.344,0-13.464-6.119-13.464-13.464c0-7.344,6.12-13.464,13.464-13.464h41.616
			c7.345,0,13.464,6.12,13.464,13.464C6109.596,410.688,6104.088,416.808,6096.132,416.808z"/>
	</g>
	<g>
		<path d="M6311.557,673.848c-7.344,0-13.465-6.119-13.465-13.464v-42.228c0-7.344,6.121-13.464,13.465-13.464
			s13.463,6.12,13.463,13.464v42.228C6325.02,667.729,6318.9,673.848,6311.557,673.848z"/>
	</g>
	<g>
		<path d="M6311.557,201.996c-7.344,0-13.465-6.12-13.465-13.464v-41.616c0-7.344,6.121-13.464,13.465-13.464
			s13.463,6.12,13.463,13.464v42.228C6325.02,195.876,6318.9,201.996,6311.557,201.996z"/>
	</g>
</g>
<g id="Expanded_1_">
	<g>
		<g>
			<g>
				<path d="M7026.982,471.888c-4.283,0-7.955-1.836-10.402-4.896l-91.188-105.264c-4.896-6.12-4.285-14.688,1.224-19.584
					s14.688-4.284,19.584,1.224l78.948,91.188l65.482-101.592c4.283-6.732,12.853-8.568,18.974-4.284
					c6.729,4.284,8.567,12.852,4.283,18.972l-75.276,116.892c-2.447,3.672-6.119,6.12-11.017,6.12
					C7027.596,471.888,7027.596,471.888,7026.982,471.888z"/>
			</g>
		</g>
		<g>
			<g>
				<path d="M7569.828,506.16c-4.283,0-9.18-1.836-11.629-6.12l-67.318-99.756l-77.112,92.412c-4.896,6.12-13.463,6.73-19.584,1.836
					c-6.119-4.896-6.729-13.464-1.836-19.584l89.353-106.488c3.061-3.672,6.731-5.508,11.629-4.896c4.283,0,8.567,2.448,11.016,6.12
					l77.725,115.667c4.283,6.12,2.447,15.302-3.672,19.584C7574.725,505.548,7572.275,506.16,7569.828,506.16z"/>
			</g>
		</g>
		<g>
			<g>
				<path d="M7256.482,653.652c-64.871,0-127.908-25.094-175.644-72.218c-5.508-5.508-5.508-14.074,0-19.584
					c5.508-5.508,14.076-5.508,19.584,0c55.08,54.47,132.804,75.89,207.468,58.142c109.548-25.704,182.988-129.744,170.137-241.74
					c-0.611-7.344,4.896-14.688,12.24-15.3c7.957-1.224,14.688,4.896,15.301,12.24c14.688,126.072-67.933,242.352-190.943,271.728
					C7295.652,651.816,7276.068,653.652,7256.482,653.652z"/>
			</g>
		</g>
		<g>
			<g>
				<path d="M7026.982,471.888c-6.119,0-12.238-4.284-13.463-11.016c-15.301-64.872-4.283-132.192,30.6-189.108
					c34.885-56.916,90.577-96.696,155.449-111.996c89.963-21.42,183.6,8.568,245.412,77.724c4.896,5.508,4.283,14.688-1.225,19.584
					c-5.509,4.896-14.688,4.284-19.584-1.224c-54.469-61.812-138.312-88.128-217.871-69.156
					c-57.528,13.464-107.101,48.96-138.313,99.756c-31.211,50.796-41.004,110.16-26.929,168.3c1.836,7.344-3.061,15.3-10.403,16.524
					C7029.432,471.888,7028.208,471.888,7026.982,471.888z"/>
			</g>
		</g>
	</g>
</g>
<g>
	<g>
		<path d="M5433.336,607.752c-104.652,0-217.872-22.644-217.872-72.216v-5.508l41.616-38.558V348.264
			c0-110.16,73.439-190.332,174.42-190.332s174.42,80.172,174.42,190.332V490.86l45.9,38.556v6.12
			C5651.208,585.108,5538.6,607.752,5433.336,607.752z M5244.229,540.432c10.404,15.912,76.5,41.004,189.721,41.004
			c111.995,0,178.092-24.479,189.107-40.392l-44.063-37.332V348.264c0-94.86-61.813-163.404-147.492-163.404
			s-147.492,68.544-147.492,163.404V503.1L5244.229,540.432z"/>
	</g>
	<g>
		<path d="M5483.52,619.992c0,22.032-23.256,40.392-52.631,40.392c-28.765,0-52.633-17.748-52.633-40.392H5483.52L5483.52,619.992z"
			/>
		<path d="M5431.5,662.832c-30.6,0-55.08-18.972-55.08-42.84v-2.448h110.16v2.448C5486.58,643.86,5461.488,662.832,5431.5,662.832z
			 M5381.928,623.052c1.836,19.584,23.256,34.884,49.572,34.884s47.736-15.3,49.572-34.884H5381.928z"/>
	</g>
	<g>
		<path d="M5452.309,171.396v-20.808c0-10.404-9.181-18.972-21.42-18.972c-11.629,0-21.42,8.568-21.42,18.972v21.42"/>
		<path d="M5455.368,171.396h-5.509v-20.808c0-9.18-8.566-16.524-18.359-16.524c-10.403,0-18.358,7.344-18.358,16.524v21.42h-5.509
			v-21.42c0-11.628,10.402-21.42,23.868-21.42c12.853,0,23.868,9.792,23.868,21.42L5455.368,171.396L5455.368,171.396z"/>
	</g>
</g>
</svg>
