{
  "num": "300015646",
  "name": "Styles and Periods",
  "size": 10,
  "data": {
    "$area": 44323,
    "size": 1000,
    "$color": "#1c37ff",
    "description": "(44.323) for terms associated with the root category",
    "title": " is root Category",
    "definition": "Root"
  },
  "children": [
    {
      "num": "300111078",
      "name": "Styles an Periods by era",
      "size": 450,
      "children": [
        {
          "num": "1000106711",
          "name": "Ancient",
          "size": 20,
          "children": [
            
          ],
          "data": {
            "$area": 58,
            "size": 20,
            "$color": "#4157ff",
            "description": "58 Digital Resources",
            "title": "is Concept",
            "definition": "Concept"
          }
        },
        {
          "num": "1000019257",
          "name": "Prehistoric",
          "size": 28,
          "children": [
            
          ],
          "data": {
            "$area": 114,
            "size": 28,
            "$color": "#4157ff",
            "description": "114 Digital Resources",
            "title": "is Concept",
            "definition": "Concept"
          }
        },
        {
          "num": "1000019280",
          "name": "Protohistoric",
          "size": 5,
          "children": [
            
          ],
          "data": {
            "$area": 0,
            "size": 5,
            "$color": "#4157ff",
            "description": "0 Digital Resources",
            "title": "is Concept",
            "definition": "Concept"
          }
        },
        {
          "num": "1000106716",
          "name": "Dark Ages",
          "size": 15,
          "children": [
            
          ],
          "data": {
            "$area": 24,
            "size": 15,
            "$color": "#4157ff",
            "description": "24 Digital Resources",
            "title": "is Concept",
            "definition": "Concept"
          }
        },
        {
          "num": "1000304726",
          "name": "Modern",
          "size": 81,
          "children": [
            
          ],
          "data": {
            "$area": 1374,
            "size": 81,
            "$color": "#4157ff",
            "description": "1.374 Digital Resources",
            "title": "is Concept",
            "definition": "Concept"
          }
        },
        {
          "num": "1000304728",
          "name": "Contemporary",
          "size": 70,
          "children": [
            
          ],
          "data": {
            "$area": 800,
            "size": 70,
            "$color": "#4157ff",
            "description": "800 Digital Resources",
            "title": "is Concept",
            "definition": "Concept"
          }
        },
        {
          "num": "300106723",
          "name": "Three age System",
          "size": 250,
          "children": [
            {
              "num": "1000106724",
              "name": "Stone Age",
              "size": 25,
              "children": [
                {
                  "num": "1000019258",
                  "name": "Paleolithic",
                  "size": 15,
                  "children": [
                    {
                      "num": "1000019260",
                      "name": "Lower Paleolithic",
                      "size": 15,
                      "children": [
                        
                      ],
                      "data": {
                        "$area": 10,
                        "size": 15,
                        "$color": "#4157ff",
                        "description": "10 Digital Resources",
                        "title": "is Concept",
                        "definition": "Concept"
                      }
                    },
                    {
                      "num": "1000019261",
                      "name": "Middle Paleolithic",
                      "size": 15,
                      "children": [
                        
                      ],
                      "data": {
                        "$area": 11,
                        "size": 15,
                        "$color": "#4157ff",
                        "description": "11 Digital Resources",
                        "title": "is Concept",
                        "definition": "Concept"
                      }
                    },
                    {
                      "num": "1000019262",
                      "name": "Upper Paleolithic",
                      "size": 15,
                      "children": [
                        
                      ],
                      "data": {
                        "$area": 26,
                        "size": 15,
                        "$color": "#4157ff",
                        "description": "26 Digital Resources",
                        "title": "is Concept",
                        "definition": "Concept"
                      }
                    },
                    {
                      "num": "1000106730",
                      "name": "Epipaleolithic",
                      "size": 15,
                      "children": [
                        
                      ],
                      "data": {
                        "iorea": 9,
                        "size": 15,
                        "$color": "#4157ff",
                        "description": "9 Digital Resources",
                        "title": "is Concept",
                        "definition": "Concept"
                      }
                    }
                  ],
                  "data": {
                    "$area": 12,
                    "size": 15,
                    "$color": "#687aff",
                    "description": "68 Digital Resources",
                    "title": "is Concept",
                    "definition": "Concept"
                  }
                },
                {
                  "num": "1000019267",
                  "name": "Neolithic",
                  "size": 42,
                  "children": [
                    {
                      "num": "1000019270",
                      "name": "Early Neolithic",
                      "size": 45,
                      "children": [
                        
                      ],
                      "data": {
                        "$area": 380,
                        "size": 45,
                        "$color": "#4157ff",
                        "description": "380 Digital Resources",
                        "title": "is Concept",
                        "definition": "Concept"
                      }
                    },
                    {
                      "num": "1000019271",
                      "name": "Middle Neolithic",
                      "size": 20,
                      "children": [
                        
                      ],
                      "data": {
                        "$area": 37,
                        "size": 20,
                        "$color": "#4157ff",
                        "description": "37 Digital Resources",
                        "title": "is Concept",
                        "definition": "Concept"
                      }
                    },
                    {
                      "num": "1000019272",
                      "name": "Late Neolithic",
                      "size": 55,
                      "children": [
                        
                      ],
                      "data": {
                        "$area": 460,
                        "size": 55,
                        "$color": "#4157ff",
                        "description": "460 Digital Resources",
                        "title": "is Concept",
                        "definition": "Concept"
                      }
                    }
                  ],
                  "data": {
                    "$area": 348,
                    "size": 42,
                    "$color": "#687aff",
                    "description": "1225 Digital Resources",
                    "title": "is Concept",
                    "definition": "Concept"
                  }
                },
                {
                  "num": "1000019264",
                  "name": "Mesolithic",
                  "size": 28,
                  "children": [
                    
                  ],
                  "data": {
                    "$area": 104,
                    "size": 28,
                    "$color": "#4157ff",
                    "description": "104 Digital Resources",
                    "title": "is Concept",
                    "definition": "Concept"
                  }
                }
              ],
              "data": {
                "$area": 59,
                "size": 20,
                "$color": "#687aff",
                "description": "1456 Digital Resources",
                "title": "is Concept",
                "definition": "Concept"
              }
            },
            {
              "num": "300106747",
              "name": "Transitional Periods",
              "children": [
                {
                  "num": "1000019273",
                  "name": "Chalcolithic",
                  "children": [
                    {
                      "num": "1000106751",
                      "name": "Early Chalcolithic",
                      "children": [
                        
                      ],
                      "data": {
                        "$area": 0,
                        "size": 5,
                        "$color": "#4157ff",
                        "description": "0 Digital Resources",
                        "title": "is Concept",
                        "definition": "Concept"
                      }
                    },
                    {
                      "num": "1000106755",
                      "name": "Late Chalcolithic",
                      "children": [
                        
                      ],
                      "data": {
                        "$area": 0,
                        "size": 5,
                        "$color": "#4157ff",
                        "description": "0 Digital Resources",
                        "title": "is Concept",
                        "definition": "Concept"
                      }
                    },
                    {
                      "num": "1000106753",
                      "name": "Middle Chalcolithic",
                      "children": [
                        
                      ],
                      "data": {
                        "$area": 1,
                        "size": 5,
                        "$color": "#4157ff",
                        "description": "1 Digital Resources",
                        "title": "is Concept",
                        "definition": "Concept"
                      }
                    }
                  ],
                  "data": {
                    "$area": 38,
                    "size": 20,
                    "$color": "#687aff",
                    "description": "38 Digital Resources",
                    "title": "is Concept",
                    "definition": "Concept"
                  }
                },
                {
                  "num": "1000106757",
                  "name": "Eneolithic",
                  "children": [
                    
                  ],
                  "data": {
                    "$area": 5,
                    "size": 15,
                    "$color": "#4157ff",
                    "description": "5 Digital Resources",
                    "title": "is Concept",
                    "definition": "Concept"
                  }
                },
                {
                  "num": "1000106759",
                  "name": "Final Neolithic",
                  "children": [
                    
                  ],
                  "data": {
                    "$area": 7,
                    "size": 15,
                    "$color": "#4157ff",
                    "description": "7 Digital Resources",
                    "title": "is Concept",
                    "definition": "Concept"
                  }
                }
              ],
              "data": {
                "$area": 18538,
                "size": 250,
                "$color": "#687aff",
                "description": "(18.583) digital resources for terms of this category",
                "title": "is Category",
                "definition": "Guide"
              }
            },
            {
              "num": "1000019275",
              "name": "Bronze Age",
              "children": [
                
              ],
              "data": {
                "$area": 5836,
                "size": 167,
                "$color": "#4157ff",
                "description": "5.836  Digital Resources",
                "title": "is Concept",
                "definition": "Concept"
              }
            },
            {
              "num": "1000019279",
              "name": "Iron Age",
              "children": [
                
              ],
              "data": {
                "$area": 11240,
                "size": 250,
                "$color": "#4157ff",
                "description": "11.240 Digital Resources",
                "title": "is Concept",
                "definition": "Concept"
              }
            }
          ],
          "data": {
            "$area": 19383,
            "size": 250,
            "$color": "#687aff",
            "description": "(19.383) digital resources for terms of this category",
            "title": "is Category",
            "definition": "Guide"
          }
        }
      ],
      "data": {
        "$area": 20895,
        "size": 450,
        "$color": "#687aff",
        "description": "(20.895) digital resources for terms of this category",
        "title": "is Category",
        "definition": "Guide"
      }
    },
    {
      "num": "300111079",
      "name": "Styles an Periods by region",
      "size": 450,
      "children": [
        {
          "num": "1000015647",
          "name": "African",
          "size": 35,
          "children": [
            
          ],
          "data": {
            "$area": 186,
            "size": 35,
            "$color": "#4157ff",
            "description": "186 Digital Resources",
            "title": "is Concept",
            "definition": "Concept"
          }
        },
        {
          "num": "1000018279",
          "name": "Asian",
          "size": 35,
          "children": [
            
          ],
          "data": {
            "$area": 189,
            "size": 35,
            "$color": "#4157ff",
            "description": "189 Digital Resources",
            "title": "is Concept",
            "definition": "Concept"
          }
        },
        {
          "num": "1000021854",
          "name": "Oceanic",
          "size": 10,
          "children": [
            
          ],
          "data": {
            "$area": 30,
            "size": 10,
            "$color": "#4157ff",
            "description": "30 Digital Resources",
            "title": "is Concept",
            "definition": "Concept"
          }
        },
        {
          "num": "300016617",
          "name": "The Americas",
          "size": 5,
          "children": [
            
          ],
          "data": {
            "$area": 0,
            "size": 5,
            "$color": "#4157ff",
            "description": "-unexplored category-",
            "title": "is Category",
            "definition": "Guide"
          }
        },
        {
          "num": "300019255",
          "name": "Early Western World",
          "size": 10,
          "children": [
            
          ],
          "data": {
            "$area": 0,
            "size": 10,
            "$color": "#4157ff",
            "description": "-unexplored category-",
            "title": "is Category",
            "definition": "Guide"
          }
        },
        {
          "num": "300021516",
          "name": "The Islamic World",
          "size": 5,
          "children": [
            
          ],
          "data": {
            "$area": 0,
            "size": 5,
            "$color": "#4157ff",
            "description": "-unexplored category-",
            "title": "is Category",
            "definition": "Guide"
          }
        },
        {
          "num": "300022097",
          "name": "International post-1945",
          "children": [
            
          ],
          "size": 5,
          "data": {
            "$area": 0,
            "size": 5,
            "$color": "#4157ff",
            "description": "-unexplored category-",
            "title": "is Category",
            "definition": "Guide"
          }
        },
        {
          "num": "1000020656",
          "name": "European",
          "children": [
            {
              "num": "300111149",
              "name": "European region",
              "size": 10,
              "children": [
                {
                  "num": "1000111159",
                  "name": "British",
                  "size": 20,
                  "children": [
                    {
                      "num": "1000111178",
                      "name": "English",
                      "size": 25,
                      "size": 20,
                      "children": [
                        
                      ],
                      "data": {
                        "$area": 49,
                        "size": 20,
                        "$color": "#4157ff",
                        "description": "49 Digital Resources",
                        "title": "is Concept",
                        "definition": "Concept"
                      }
                    },
                    {
                      "num": "1000111212",
                      "name": "Scottish",
                      "size": 10,
                      "children": [
                        
                      ],
                      "data": {
                        "$area": 200,
                        "size": 10,
                        "$color": "#4157ff",
                        "description": "5 Digital Resources",
                        "title": "is Concept",
                        "definition": "Concept"
                      }
                    },
                    {
                      "num": "1000263862",
                      "name": "Pre-Conquest",
                      "size": 10,
                      "children": [
                        
                      ],
                      "data": {
                        "$area": 0,
                        "size": 10,
                        "$color": "#4157ff",
                        "description": "0 Digital Resources",
                        "title": "is Concept",
                        "definition": "Concept"
                      }
                    }
                  ],
                  "data": {
                    "$area": 93,
                    "size": 25,
                    "$color": "#687aff",
                    "description": "93 Digital Resources",
                    "title": "is Concept",
                    "definition": "Concept"
                  }
                },
                {
                  "num": "1000111150",
                  "name": "Albanian",
                  "size": 10,
                  "children": [
                    
                  ],
                  "data": {
                    "$area": 1,
                    "size": 10,
                    "$color": "#4157ff",
                    "description": "1 Digital Resources",
                    "title": "is Concept",
                    "definition": "Concept"
                  }
                },
                {
                  "num": "1000111153",
                  "name": "Austrian",
                  "size": 20,
                  "children": [
                    
                  ],
                  "data": {
                    "$area": 9,
                    "size": 20,
                    "$color": "#4157ff",
                    "description": "9 Digital Resources",
                    "title": "is Concept",
                    "definition": "Concept"
                  }
                },
                {
                  "num": "1000111156",
                  "name": "Belgian",
                  "size": 20,
                  "children": [
                    
                  ],
                  "data": {
                    "$area": 7,
                    "size": 20,
                    "$color": "#4157ff",
                    "description": "7 Digital Resources",
                    "title": "is Concept",
                    "definition": "Concept"
                  }
                },
                {
                  "num": "1000111163",
                  "name": "Bulgarian",
                  "size": 20,
                  "children": [
                    
                  ],
                  "data": {
                    "$area": 5,
                    "size": 20,
                    "$color": "#4157ff",
                    "description": "5 Digital Resources",
                    "title": "is Concept",
                    "definition": "Concept"
                  }
                },
                {
                  "num": "1000111166",
                  "name": "Czech",
                  "size": 20,
                  "children": [
                    
                  ],
                  "data": {
                    "$area": 46,
                    "size": 20,
                    "$color": "#4157ff",
                    "description": "46 Digital Resources",
                    "title": "is Concept",
                    "definition": "Concept"
                  }
                },
                {
                  "num": "1000020929",
                  "name": "Netherlandish",
                  "size": 10,
                  "children": [
                    {
                      "num": "1000111175",
                      "name": "Dutch",
                      "size": 10,
                      "children": [
                        
                      ],
                      "data": {
                        "$area": 11,
                        "size": 20,
                        "$color": "#4157ff",
                        "description": "11 Digital Resources",
                        "title": "is Concept",
                        "definition": "Concept"
                      }
                    }
                  ],
                  "data": {
                    "$area": 1,
                    "size": 10,
                    "$color": "#687aff",
                    "description": "1 Digital Resources",
                    "title": "is Concept",
                    "definition": "Concept"
                  }
                },
                {
                  "num": "1000111188",
                  "name": "French",
                  "size": 20,
                  "children": [
                    
                  ],
                  "data": {
                    "$area": 44,
                    "size": 20,
                    "$color": "#4157ff",
                    "description": "44 Digital Resources",
                    "title": "is Concept",
                    "definition": "Concept"
                  }
                },
                {
                  "num": "1000111192",
                  "name": "German",
                  "size": 25,
                  "children": [
                    
                  ],
                  "data": {
                    "$area": 121,
                    "size": 25,
                    "$color": "#4157ff",
                    "description": "121 Digital Resources",
                    "title": "is Concept",
                    "definition": "Concept"
                  }
                },
                {
                  "num": "1000111195",
                  "name": "Hungarian",
                  "size": 20,
                  "children": [
                    
                  ],
                  "data": {
                    "$area": 22,
                    "size": 20,
                    "$color": "#4157ff",
                    "description": "22 Digital Resources",
                    "title": "is Concept",
                    "definition": "Concept"
                  }
                },
                {
                  "num": "1000111198",
                  "name": "Italian",
                  "size": 25,
                  "children": [
                    
                  ],
                  "data": {
                    "$area": 122,
                    "size": 25,
                    "$color": "#4157ff",
                    "description": "122 Digital Resources",
                    "title": "is Concept",
                    "definition": "Concept"
                  }
                },
                {
                  "num": "1000111204",
                  "name": "Polish",
                  "size": 65,
                  "children": [
                    
                  ],
                  "data": {
                    "$area": 636,
                    "size": 65,
                    "$color": "#4157ff",
                    "description": "636 Digital Resources",
                    "title": "is Concept",
                    "definition": "Concept"
                  }
                },
                {
                  "num": "1000111207",
                  "name": "Portuguese",
                  "size": 20,
                  "children": [
                    
                  ],
                  "data": {
                    "$area": 4,
                    "size": 20,
                    "$color": "#4157ff",
                    "description": "4 Digital Resources",
                    "title": "is Concept",
                    "definition": "Concept"
                  }
                },
                {
                  "num": "1000111210",
                  "name": "Romanian",
                  "size": 10,
                  "children": [
                    
                  ],
                  "data": {
                    "$area": 2,
                    "size": 10,
                    "$color": "#4157ff",
                    "description": "2 Digital Resources",
                    "title": "is Concept",
                    "definition": "Concept"
                  }
                },
                {
                  "num": "1000111215",
                  "name": "Spanish",
                  "size": 10,
                  "children": [
                    
                  ],
                  "data": {
                    "$area": 200,
                    "size": 10,
                    "$color": "#4157ff",
                    "description": "1.549 Digital Resources",
                    "title": "is Concept",
                    "definition": "Concept"
                  }
                },
                {
                  "num": "1000111221",
                  "name": "Swiss",
                  "size": 20,
                  "children": [
                    
                  ],
                  "data": {
                    "$area": 5,
                    "size": 20,
                    "$color": "#4157ff",
                    "description": "5 Digital Resources",
                    "title": "is Concept",
                    "definition": "Concept"
                  }
                },
                {
                  "num": "1000111225",
                  "name": "Welsh",
                  "size": 5,
                  "children": [
                    
                  ],
                  "data": {
                    "$area": 0,
                    "size": 5,
                    "$color": "#4157ff",
                    "description": "0 Digital Resources",
                    "title": "is Concept",
                    "definition": "Concept"
                  }
                },
                {
                  "num": "1000111228",
                  "name": "Yugoslav",
                  "size": 20,
                  "children": [
                    
                  ],
                  "data": {
                    "$area": 4,
                    "size": 20,
                    "$color": "#4157ff",
                    "description": "4 Digital Resources",
                    "title": "is Concept",
                    "definition": "Concept"
                  }
                },
                {
                  "num": "1000111259",
                  "name": "Irish",
                  "size": 20,
                  "children": [
                    
                  ],
                  "data": {
                    "$area": 4,
                    "size": 20,
                    "$color": "#4157ff",
                    "description": "4 Digital Resources",
                    "title": "is Concept",
                    "definition": "Concept"
                  }
                },
                {
                  "num": "1000111276",
                  "name": "Russian",
                  "size": 20,
                  "children": [
                    
                  ],
                  "data": {
                    "$area": 28,
                    "size": 20,
                    "$color": "#4157ff",
                    "description": "28 Digital Resources",
                    "title": "is Concept",
                    "definition": "Concept"
                  }
                },
                {
                  "num": "1000263642",
                  "name": "Serbian",
                  "size": 20,
                  "children": [
                    
                  ],
                  "data": {
                    "$area": 14,
                    "size": 20,
                    "$color": "#4157ff",
                    "description": "14 Digital Resources",
                    "title": "is Concept",
                    "definition": "Concept"
                  }
                },
                {
                  "num": "1000263654",
                  "name": "Slovene",
                  "size": 10,
                  "children": [
                    
                  ],
                  "data": {
                    "$area": 1,
                    "size": 10,
                    "$color": "#4157ff",
                    "description": "1 Digital Resources",
                    "title": "is Concept",
                    "definition": "Concept"
                  }
                },
                {
                  "num": "1000263655",
                  "name": "Croatian",
                  "size": 10,
                  "children": [
                    
                  ],
                  "data": {
                    "$area": 3,
                    "size": 10,
                    "$color": "#4157ff",
                    "description": "3 Digital Resources",
                    "title": "is Concept",
                    "definition": "Concept"
                  }
                },
                {
                  "num": "1000263656",
                  "name": "Wendish",
                  "size": 5,
                  "children": [
                    
                  ],
                  "data": {
                    "$area": 0,
                    "size": 5,
                    "$color": "#4157ff",
                    "description": "0 Digital Resources",
                    "title": "is Concept",
                    "definition": "Concept"
                  }
                },
                {
                  "num": "1000303435",
                  "name": "Belorussian",
                  "size": 5,
                  "children": [
                    
                  ],
                  "data": {
                    "$area": 0,
                    "size": 5,
                    "$color": "#4157ff",
                    "description": "0 Digital Resources",
                    "title": "is Concept",
                    "definition": "Concept"
                  }
                },
                {
                  "num": "1000304982",
                  "name": "Greek",
                  "size": 20,
                  "children": [
                    
                  ],
                  "data": {
                    "$area": 21,
                    "size": 20,
                    "$color": "#4157ff",
                    "description": "21 Digital Resources",
                    "title": "is Concept",
                    "definition": "Concept"
                  }
                },
                {
                  "num": "1000111169",
                  "name": "Scandinavian",
                  "size": 20,
                  "children": [
                    {
                      "num": "1000111172",
                      "name": "Danish",
                      "size": 10,
                      "children": [
                        
                      ],
                      "data": {
                        "$area": 2,
                        "size": 10,
                        "$color": "#4157ff",
                        "description": "2 Digital Resources",
                        "title": "is Concept",
                        "definition": "Concept"
                      }
                    },
                    {
                      "num": "1000111181",
                      "name": "Finnish",
                      "size": 10,
                      "children": [
                        
                      ],
                      "data": {
                        "$area": 8,
                        "size": 10,
                        "$color": "#4157ff",
                        "description": "8 Digital Resources",
                        "title": "is Concept",
                        "definition": "Concept"
                      }
                    },
                    {
                      "num": "1000111201",
                      "name": "Norwegian",
                      "size": 20,
                      "children": [
                        
                      ],
                      "data": {
                        "$area": 16,
                        "size": 20,
                        "$color": "#4157ff",
                        "description": "16 Digital Resources",
                        "title": "is Concept",
                        "definition": "Concept"
                      }
                    },
                    {
                      "num": "1000275470",
                      "name": "Nordic",
                      "size": 20,
                      "children": [
                        
                      ],
                      "data": {
                        "$area": 16,
                        "size": 20,
                        "$color": "#4157ff",
                        "description": "16 Digital Resources",
                        "title": "is Concept",
                        "definition": "Concept"
                      }
                    }
                  ],
                  "data": {
                    "$area": 10,
                    "size": 20,
                    "$color": "#687aff",
                    "description": "10 Digital Resources",
                    "title": "is Concept",
                    "definition": "Concept"
                  }
                }
              ],
              "data": {
                "$area": 2834,
                "size": 10,
                "$color": "#687aff",
                "description": "(2.834) digital resources for terms of this category",
                "title": "is Category",
                "definition": "Guide"
              }
            },
            {
              "num": "300111148",
              "name": "European Styles and Periods",
              "size": 100,
              "children": [
                {
                  "num": "300020658",
                  "name": "Early Christian-Byzantine styles and periods",
                  "size": 5,
                  "children": [
                    
                  ],
                  "data": {
                    "$area": 0,
                    "size": 5,
                    "$color": "#4157ff",
                    "description": "-unexplored category-",
                    "title": "is Category",
                    "definition": "Guide"
                  }
                },
                {
                  "num": "300111907",
                  "name": "Medieval styles and periods",
                  "size": 5,
                  "children": [
                    
                  ],
                  "data": {
                    "$area": 0,
                    "size": 5,
                    "$color": "#4157ff",
                    "description": "-unexplored category-",
                    "title": "is Category",
                    "definition": "Guide"
                  }
                },
                {
                  "num": "300021031",
                  "name": "Renaissance-Baroque styles and periods",
                  "size": 5,
                  "children": [
                    
                  ],
                  "data": {
                    "$area": 0,
                    "size": 5,
                    "$color": "#4157ff",
                    "description": "-unexplored category-",
                    "title": "is Category",
                    "definition": "Guide"
                  }
                },
                {
                  "num": "300021424",
                  "name": "Modern European styles and movements",
                  "size": 30,
                  "children": [
                    {
                      "num": "1000021426",
                      "name": "Art Deco",
                      "children": [
                        
                      ],
                      "data": {
                        "$area": 150,
                        "size": 30,
                        "$color": "#4157ff",
                        "description": "150 Digital Resources",
                        "title": "is Concept",
                        "definition": "Concept"
                      }
                    },
                    {
                      "num": "1000021430",
                      "name": "Art Nouveau",
                      "size": 56,
                      "children": [
                        
                      ],
                      "data": {
                        "$area": 552,
                        "size": 56,
                        "$color": "#4157ff",
                        "description": "552 Digital Resources",
                        "title": "is Concept",
                        "definition": "Concept"
                      }
                    },
                    {
                      "num": "1000021434",
                      "name": "Biedermeier",
                      "size": 65,
                      "children": [
                        
                      ],
                      "data": {
                        "$area": 519,
                        "size": 65,
                        "$color": "#4157ff",
                        "description": "519 Digital Resources",
                        "title": "is Concept",
                        "definition": "Concept"
                      }
                    },
                    {
                      "num": "1000021474",
                      "name": "Modernist",
                      "size": 25,
                      "children": [
                        
                      ],
                      "data": {
                        "$area": 125,
                        "size": 25,
                        "$color": "#4157ff",
                        "description": "125 Digital Resources",
                        "title": "is Concept",
                        "definition": "Concept"
                      }
                    },
                    {
                      "num": "1000021476",
                      "name": "Neo-Romantic",
                      "size": 10,
                      "children": [
                        
                      ],
                      "data": {
                        "$area": 13,
                        "size": 10,
                        "$color": "#4157ff",
                        "description": "13 Digital Resources",
                        "title": "is Concept",
                        "definition": "Concept"
                      }
                    },
                    {
                      "num": "1000021477",
                      "name": "Neoclassical",
                      "size": 35,
                      "children": [
                        
                      ],
                      "data": {
                        "$area": 196,
                        "size": 35,
                        "$color": "#4157ff",
                        "description": "196 Digital Resources",
                        "title": "is Concept",
                        "definition": "Concept"
                      }
                    },
                    {
                      "num": "1000021502",
                      "name": "Expressionist",
                      "size": 25,
                      "children": [
                        
                      ],
                      "data": {
                        "$area": 69,
                        "size": 25,
                        "$color": "#4157ff",
                        "description": "69 Digital Resources",
                        "title": "is Concept",
                        "definition": "Concept"
                      }
                    },
                    {
                      "num": "1000111540",
                      "name": "fin de siecle",
                      "size": 5,
                      "children": [
                        
                      ],
                      "data": {
                        "$area": 0,
                        "size": 5,
                        "$color": "#4157ff",
                        "description": "0 Digital Resources",
                        "title": "is Concept",
                        "definition": "Concept"
                      }
                    },
                    {
                      "num": "1000111580",
                      "name": "Secession Movement",
                      "size": 10,
                      "children": [
                        
                      ],
                      "data": {
                        "$area": 6,
                        "size": 10,
                        "$color": "#4157ff",
                        "description": "6 Digital Resources",
                        "title": "is Concept",
                        "definition": "Concept"
                      }
                    },
                    {
                      "num": "1000172863",
                      "name": "Romantic",
                      "size": 83,
                      "children": [
                        
                      ],
                      "data": {
                        "$area": 1739,
                        "size": 83,
                        "$color": "#4157ff",
                        "description": "1739 Digital Resources",
                        "title": "is Concept",
                        "definition": "Concept"
                      }
                    },
                    {
                      "num": "1000308866",
                      "name": "Nazarene",
                      "size": 10,
                      "children": [
                        
                      ],
                      "data": {
                        "$area": 76,
                        "size": 10,
                        "$color": "#4157ff",
                        "description": "76 Digital Resources",
                        "title": "is Concept",
                        "definition": "Concept"
                      }
                    },
                    {
                      "num": "300021442",
                      "name": "Modern European revival styles",
                      "size": 78,
                      "children": [
                        {
                          "num": "1000021444",
                          "name": "Baroque Revival",
                          "size": 30,
                          "children": [
                            
                          ],
                          "data": {
                            "$area": 146,
                            "size": 30,
                            "$color": "#4157ff",
                            "description": "146 Digital Resources",
                            "title": "is Concept",
                            "definition": "Concept"
                          }
                        },
                        {
                          "num": "1000021446",
                          "name": "Byzantine Revival",
                          "size": 20,
                          "children": [
                            
                          ],
                          "data": {
                            "$area": 4,
                            "size": 20,
                            "$color": "#4157ff",
                            "description": "4 Digital Resources",
                            "title": "is Concept",
                            "definition": "Concept"
                          }
                        },
                        {
                          "num": "1000021448",
                          "name": "Egyptian Revival",
                          "size": 20,
                          "children": [
                            
                          ],
                          "data": {
                            "$area": 5,
                            "size": 20,
                            "$color": "#4157ff",
                            "description": "5 Digital Resources",
                            "title": "is Concept",
                            "definition": "Concept"
                          }
                        },
                        {
                          "num": "1000021450",
                          "name": "Etruscan Style",
                          "size": 10,
                          "children": [
                            
                          ],
                          "data": {
                            "$area": 8,
                            "size": 10,
                            "$color": "#4157ff",
                            "description": "8 Digital Resources",
                            "title": "is Concept",
                            "definition": "Concept"
                          }
                        },
                        {
                          "num": "1000021452",
                          "name": "Gothic Revival",
                          "size": 50,
                          "children": [
                            
                          ],
                          "data": {
                            "$area": 406,
                            "size": 50,
                            "$color": "#4157ff",
                            "description": "406 Digital Resources",
                            "title": "is Concept",
                            "definition": "Concept"
                          }
                        },
                        {
                          "num": "1000021456",
                          "name": "Greek Revival",
                          "size": 20,
                          "children": [
                            
                          ],
                          "data": {
                            "$area": 43,
                            "size": 20,
                            "$color": "#4157ff",
                            "description": "43 Digital Resources",
                            "title": "is Concept",
                            "definition": "Concept"
                          }
                        },
                        {
                          "num": "1000021462",
                          "name": "Pompeian Style",
                          "size": 10,
                          "children": [
                            
                          ],
                          "data": {
                            "$area": 2,
                            "size": 10,
                            "$color": "#4157ff",
                            "description": "2 Digital Resources",
                            "title": "is Concept",
                            "definition": "Concept"
                          }
                        },
                        {
                          "num": "1000021464",
                          "name": "Renaissance Revival",
                          "size": 10,
                          "children": [
                            
                          ],
                          "data": {
                            "$area": 2,
                            "size": 10,
                            "$color": "#4157ff",
                            "description": "2 Digital Resources",
                            "title": "is Concept",
                            "definition": "Concept"
                          }
                        },
                        {
                          "num": "1000021466",
                          "name": "Rococo Revival",
                          "size": 10,
                          "children": [
                            
                          ],
                          "data": {
                            "$area": 2,
                            "size": 10,
                            "$color": "#4157ff",
                            "description": "14 Digital Resources",
                            "title": "is Concept",
                            "definition": "Concept"
                          }
                        },
                        {
                          "num": "1000021467",
                          "name": "Romanesque Revival",
                          "size": 20,
                          "children": [
                            
                          ],
                          "data": {
                            "$area": 19,
                            "size": 20,
                            "$color": "#4157ff",
                            "description": "19 Digital Resources",
                            "title": "is Concept",
                            "definition": "Concept"
                          }
                        },
                        {
                          "num": "1000108149",
                          "name": "Classical Revival",
                          "size": 25,
                          "children": [
                            
                          ],
                          "data": {
                            "$area": 88,
                            "size": 25,
                            "$color": "#4157ff",
                            "description": "88 Digital Resources",
                            "title": "is Concept",
                            "definition": "Concept"
                          }
                        },
                        {
                          "num": "1000198720",
                          "name": "Moorish Revival",
                          "size": 5,
                          "children": [
                            
                          ],
                          "data": {
                            "$area": 0,
                            "size": 5,
                            "$color": "#4157ff",
                            "description": "0 Digital Resources",
                            "title": "is Concept",
                            "definition": "Concept"
                          }
                        },
                        {
                          "num": "1000308856",
                          "name": "neo-Russian Style",
                          "size": 10,
                          "children": [
                            
                          ],
                          "data": {
                            "$area": 3,
                            "size": 10,
                            "$color": "#4157ff",
                            "description": "3 Digital Resources",
                            "title": "is Concept",
                            "definition": "Concept"
                          }
                        }
                      ],
                      "data": {
                        "$area": 862,
                        "size": 78,
                        "$color": "#687aff",
                        "description": "(862) digital resources for terms of this category",
                        "title": "is Category",
                        "definition": "Guide"
                      }
                    },
                    {
                      "num": "300021485",
                      "name": "Modern European architecture styles and movements",
                      "size": 170,
                      "children": [
                        {
                          "num": "1000021433",
                          "name": "Beaux-Arts",
                          "size": 50,
                          "children": [
                            
                          ],
                          "data": {
                            "$area": 394,
                            "size": 50,
                            "$color": "#4157ff",
                            "description": "394 Digital Resources",
                            "title": "is Concept",
                            "definition": "Concept"
                          }
                        },
                        {
                          "num": "1000021472",
                          "name": "International Style",
                          "size": 150,
                          "children": [
                            
                          ],
                          "data": {
                            "$area": 7338,
                            "size": 150,
                            "$color": "#4157ff",
                            "description": "7.338 Digital Resources",
                            "title": "is Concept",
                            "definition": "Concept"
                          }
                        },
                        {
                          "num": "1000111557",
                          "name": "Neues Bauen",
                          "size": 25,
                          "children": [
                            
                          ],
                          "data": {
                            "$area": 122,
                            "size": 25,
                            "$color": "#4157ff",
                            "description": "122 Digital Resources",
                            "title": "is Concept",
                            "definition": "Concept"
                          }
                        },
                        {
                          "num": "1000121793",
                          "name": "Modern Movement",
                          "size": 35,
                          "children": [
                            
                          ],
                          "data": {
                            "$area": 290,
                            "size": 35,
                            "$color": "#4157ff",
                            "description": "290 Digital Resources",
                            "title": "is Concept",
                            "definition": "Concept"
                          }
                        }
                      ],
                      "data": {
                        "$area": 8144,
                        "size": 170,
                        "$color": "#687aff",
                        "description": "(8.144) digital resources for terms of this category",
                        "title": "is Category",
                        "definition": "Guide"
                      }
                    },
                    {
                      "num": "300021490",
                      "name": "Modern European decorative arts styles and movements",
                      "size": 35,
                      "children": [
                        {
                          "num": "300111457",
                          "name": "Modern European ceramics styles",
                          "size": 20,
                          "children": [
                            {
                              "num": "1000021425",
                              "name": "Armonial",
                              "size": 10,
                              "children": [
                                
                              ],
                              "data": {
                                "$area": 9,
                                "size": 10,
                                "$color": "#4157ff",
                                "description": "9 Digital Resources",
                                "title": "is Concept",
                                "definition": "Concept"
                              }
                            },
                            {
                              "num": "1000308667",
                              "name": "Rockingham ware",
                              "size": 5,
                              "children": [
                                
                              ],
                              "data": {
                                "$area": 0,
                                "size": 5,
                                "$color": "#4157ff",
                                "description": "0 Digital Resources",
                                "title": "is Concept",
                                "definition": "Concept"
                              }
                            },
                            {
                              "num": "1000254018",
                              "name": "Wemyss",
                              "size": 20,
                              "children": [
                                
                              ],
                              "data": {
                                "$area": 29,
                                "size": 20,
                                "$color": "#4157ff",
                                "description": "29 Digital Resources",
                                "title": "is Concept",
                                "definition": "Concept"
                              }
                            }
                          ],
                          "data": {
                            "$area": 38,
                            "size": 20,
                            "$color": "#687aff",
                            "description": "(38) digital resources for terms of this category",
                            "title": "is Category",
                            "definition": "Guide"
                          }
                        },
                        {
                          "num": "1000021491",
                          "name": "Abbotsford",
                          "size": 10,
                          "children": [
                            
                          ],
                          "data": {
                            "$area": 163,
                            "size": 10,
                            "$color": "#4157ff",
                            "description": "163 Digital Resources",
                            "title": "is Concept",
                            "definition": "Concept"
                          }
                        },
                        {
                          "num": "1000308700",
                          "name": "Anglo-Japanese",
                          "size": 10,
                          "children": [
                            
                          ],
                          "data": {
                            "$area": 1,
                            "size": 10,
                            "$color": "#4157ff",
                            "description": "1 Digital Resources",
                            "title": "is Concept",
                            "definition": "Concept"
                          }
                        },
                        {
                          "num": "1000018229",
                          "name": "Rustic",
                          "size": 25,
                          "children": [
                            
                          ],
                          "data": {
                            "$area": 68,
                            "size": 25,
                            "$color": "#4157ff",
                            "description": "68 Digital Resources",
                            "title": "is Concept",
                            "definition": "Concept"
                          }
                        },
                        {
                          "num": "1000021492",
                          "name": "Japonaiserie",
                          "size": 20,
                          "children": [
                            
                          ],
                          "data": {
                            "$area": 8,
                            "size": 20,
                            "$color": "#4157ff",
                            "description": "8 Digital Resources",
                            "title": "is Concept",
                            "definition": "Concept"
                          }
                        }
                      ],
                      "data": {
                        "$area": 240,
                        "size": 35,
                        "$color": "#687aff",
                        "description": "(240) digital resources for terms of this category",
                        "title": "is Category",
                        "definition": "Guide"
                      }
                    },
                    {
                      "num": "300021494",
                      "name": "Modern European fine arts styles and movements",
                      "size": 120,
                      "children": [
                        {
                          "num": "1000108127",
                          "name": "Abstract",
                          "size": 87,
                          "children": [
                            
                          ],
                          "data": {
                            "$area": 2981,
                            "size": 87,
                            "$color": "#4157ff",
                            "description": "2.981 Digital Resources",
                            "title": "is Concept",
                            "definition": "Concept"
                          }
                        },
                        {
                          "num": "1000021436",
                          "name": "Concrete art",
                          "size": 40,
                          "children": [
                            
                          ],
                          "data": {
                            "$area": 420,
                            "size": 40,
                            "$color": "#4157ff",
                            "description": "420 Digital Resources",
                            "title": "is Concept",
                            "definition": "Concept"
                          }
                        },
                        {
                          "num": "1000021495",
                          "name": "Cubist",
                          "size": 27,
                          "children": [
                            
                          ],
                          "data": {
                            "$area": 88,
                            "size": 27,
                            "$color": "#4157ff",
                            "description": "80 Digital Resources",
                            "title": "is Concept",
                            "definition": "Concept"
                          }
                        },
                        {
                          "num": "1000021500",
                          "name": "Dada",
                          "size": 79,
                          "children": [
                            
                          ],
                          "data": {
                            "$area": 944,
                            "size": 79,
                            "$color": "#4157ff",
                            "description": "944 Digital Resources",
                            "title": "is Concept",
                            "definition": "Concept"
                          }
                        },
                        {
                          "num": "1000021503",
                          "name": "Impressionist",
                          "size": 38,
                          "children": [
                            
                          ],
                          "data": {
                            "$area": 435,
                            "size": 38,
                            "$color": "#4157ff",
                            "description": "435 Digital Resources",
                            "title": "is Concept",
                            "definition": "Concept"
                          }
                        },
                        {
                          "num": "1000021508",
                          "name": "Post-Impressionist",
                          "size": 20,
                          "children": [
                            
                          ],
                          "data": {
                            "$area": 19,
                            "size": 20,
                            "$color": "#4157ff",
                            "description": "19 Digital Resources",
                            "title": "is Concept",
                            "definition": "Concept"
                          }
                        },
                        {
                          "num": "1000021512",
                          "name": "Surrealist",
                          "size": 72,
                          "children": [
                            
                          ],
                          "data": {
                            "$area": 845,
                            "size": 72,
                            "$color": "#4157ff",
                            "description": "845 Digital Resources",
                            "title": "is Concept",
                            "definition": "Concept"
                          }
                        },
                        {
                          "num": "1000021514",
                          "name": "Symbolist",
                          "size": 25,
                          "children": [
                            
                          ],
                          "data": {
                            "$area": 106,
                            "size": 25,
                            "$color": "#4157ff",
                            "description": "106 Digital Resources",
                            "title": "is Concept",
                            "definition": "Concept"
                          }
                        },
                        {
                          "num": "1000111559",
                          "name": "Pictorialist",
                          "size": 30,
                          "children": [
                            
                          ],
                          "data": {
                            "$area": 146,
                            "size": 30,
                            "$color": "#4157ff",
                            "description": "146 Digital Resources",
                            "title": "is Concept",
                            "definition": "Concept"
                          }
                        },
                        {
                          "num": "1000122717",
                          "name": "Unanimist",
                          "size": 10,
                          "children": [
                            
                          ],
                          "data": {
                            "$area": 2,
                            "size": 10,
                            "$color": "#4157ff",
                            "description": "2 Digital Resources",
                            "title": "is Concept",
                            "definition": "Concept"
                          }
                        },
                        {
                          "num": "1000122744",
                          "name": "Neo-Florentine",
                          "size": 5,
                          "children": [
                            
                          ],
                          "data": {
                            "$area": 0,
                            "size": 5,
                            "$color": "#4157ff",
                            "description": "0 Digital Resources",
                            "title": "is Concept",
                            "definition": "Concept"
                          }
                        },
                        {
                          "num": "1000122745",
                          "name": "Rosicrucian",
                          "size": 20,
                          "children": [
                            
                          ],
                          "data": {
                            "$area": 47,
                            "size": 20,
                            "$color": "#4157ff",
                            "description": "47 Digital Resources",
                            "title": "is Concept",
                            "definition": "Concept"
                          }
                        },
                        {
                          "num": "1000134613",
                          "name": "Straight",
                          "size": 40,
                          "children": [
                            
                          ],
                          "data": {
                            "$area": 481,
                            "size": 40,
                            "$color": "#4157ff",
                            "description": "481 Digital Resources",
                            "title": "is Concept",
                            "definition": "Concept"
                          }
                        },
                        {
                          "num": "1000172861",
                          "name": "Realist",
                          "size": 40,
                          "children": [
                            
                          ],
                          "data": {
                            "$area": 481,
                            "size": 40,
                            "$color": "#4157ff",
                            "description": "481 Digital Resources",
                            "title": "is Concept",
                            "definition": "Concept"
                          }
                        },
                        {
                          "num": "1000263414",
                          "name": "New Vision",
                          "size": 24,
                          "children": [
                            
                          ],
                          "data": {
                            "$area": 107,
                            "size": 24,
                            "$color": "#4157ff",
                            "description": "107 Digital Resources",
                            "title": "is Concept",
                            "definition": "Concept"
                          }
                        },
                        {
                          "num": "1000304380",
                          "name": "Barbizon School",
                          "size": 26,
                          "children": [
                            
                          ],
                          "data": {
                            "$area": 128,
                            "size": 26,
                            "$color": "#4157ff",
                            "description": "128 Digital Resources",
                            "title": "is Concept",
                            "definition": "Concept"
                          }
                        },
                        {
                          "num": "1000304382",
                          "name": "Neo-Realisme",
                          "size": 5,
                          "children": [
                            
                          ],
                          "data": {
                            "$area": 0,
                            "size": 5,
                            "$color": "#4157ff",
                            "description": "0 Digital Resources",
                            "title": "is Concept",
                            "definition": "Concept"
                          }
                        },
                        {
                          "num": "1000306636",
                          "name": "Neo-Idealism",
                          "size": 5,
                          "children": [
                            
                          ],
                          "data": {
                            "$area": 0,
                            "size": 5,
                            "$color": "#4157ff",
                            "description": "0",
                            "title": "is Concept",
                            "definition": "Concept"
                          }
                        },
                        {
                          "num": "1000021351",
                          "name": "Magic Realist",
                          "size": 10,
                          "children": [
                            
                          ],
                          "data": {
                            "$area": 0,
                            "size": 10,
                            "$color": "#4157ff",
                            "description": "6 Digital Resources",
                            "title": "is Concept",
                            "definition": "Concept"
                          }
                        }
                      ],
                      "data": {
                        "$area": 6995,
                        "size": 120,
                        "$color": "#687aff",
                        "description": "(6.995) digital resources for terms of this category",
                        "title": "is Category",
                        "definition": "Guide"
                      }
                    }
                  ],
                  "data": {
                    "$area": 20594,
                    "size": 100,
                    "$color": "#687aff",
                    "description": "(20.594) digital resources for terms of this category",
                    "title": "is Category",
                    "definition": "Guide"
                  }
                }
              ],
              "data": {
                "$area": 20594,
                "size": 100,
                "$color": "#687aff",
                "description": "(20.594) digital resources for terms of this category",
                "title": "is Category",
                "definition": "Guide"
              }
            }
          ],
          "data": {
            "$area": 390,
            "size": 40,
            "$color": "#687aff",
            "description": "390 Digital Resources",
            "title": "is Concept",
            "definition": "Concept"
          }
        }
      ],
      "data": {
        "$area": 23452,
        "size": 550,
        "$color": "#687aff",
        "description": "(23.452) digital resources for terms of this category",
        "title": "is Category",
        "definition": "Guide"
      }
    }
  ]
}