<?xml version="1.0" encoding="utf-8"?>
<!-- Generator: Adobe Illustrator 16.0.0, SVG Export Plug-In . SVG Version: 6.00 Build 0)  -->
<!DOCTYPE svg PUBLIC "-//W3C//DTD SVG 1.1//EN" "http://www.w3.org/Graphics/SVG/1.1/DTD/svg11.dtd">
<svg version="1.1" id="Layer_1" xmlns="http://www.w3.org/2000/svg" xmlns:xlink="http://www.w3.org/1999/xlink" x="0px" y="0px"
	 width="44px" height="130px" viewBox="0 -17 44 130" enable-background="new 0 -17 44 130" xml:space="preserve">
<g enable-background="new    ">
	<path d="M15.524,93.676l3.767,1.91l-0.188,0.328c-0.078-0.008-0.141-0.012-0.188-0.012c-0.266,0-0.551,0.227-0.855,0.68
		c-0.969,1.391-1.453,3.023-1.453,4.898c0,0.828,0.102,1.559,0.305,2.191c0.156,0.461,0.39,0.834,0.702,1.119
		s0.651,0.428,1.019,0.428c0.601,0,1.011-0.363,1.229-1.09c0.109-0.375,0.227-1.18,0.352-2.414l0.188-1.84
		c0.117-1.094,0.277-1.979,0.48-2.654c0.202-0.676,0.487-1.275,0.854-1.799c0.383-0.531,0.886-0.951,1.511-1.26
		c0.624-0.309,1.292-0.463,2.002-0.463c1.124,0,2.124,0.363,2.998,1.09c0.796,0.656,1.386,1.676,1.768,3.059
		c0.289,1.031,0.434,2.137,0.434,3.316c0,2.117-0.508,4.207-1.523,6.27c-0.203,0.438-0.305,0.699-0.305,0.785
		c0,0.102,0.086,0.262,0.258,0.48l-0.176,0.34l-3.926-1.734l0.164-0.34c0.07,0,0.121,0,0.152,0c0.352,0,0.676-0.168,0.973-0.504
		c0.453-0.508,0.844-1.293,1.172-2.355s0.492-2.07,0.492-3.023c0-1.039-0.176-1.926-0.526-2.66c-0.194-0.406-0.454-0.73-0.777-0.973
		c-0.324-0.242-0.661-0.363-1.013-0.363c-0.529,0-0.908,0.285-1.134,0.855c-0.156,0.398-0.301,1.203-0.433,2.414l-0.188,1.805
		c-0.125,1.211-0.244,2.066-0.357,2.566s-0.295,1-0.546,1.5c-0.352,0.711-0.879,1.27-1.583,1.676
		c-0.633,0.367-1.36,0.551-2.182,0.551c-1.353,0-2.471-0.465-3.354-1.395c-1.165-1.219-1.748-3.047-1.748-5.484
		c0-1.023,0.104-1.977,0.313-2.859c0.207-0.883,0.59-1.984,1.146-3.305c0.181-0.453,0.271-0.73,0.271-0.832
		c0-0.164-0.091-0.355-0.271-0.574L15.524,93.676z"/>
	<path d="M28.936,90.523H15.389c-0.234,0-0.414,0.055-0.539,0.164s-0.227,0.305-0.305,0.586H14.17v-4.992h0.375
		c0.07,0.281,0.17,0.477,0.299,0.586s0.311,0.164,0.545,0.164h13.547c0.242,0,0.428-0.057,0.557-0.17s0.229-0.307,0.299-0.58h0.375
		v4.992h-0.375c-0.078-0.281-0.18-0.477-0.305-0.586S29.178,90.523,28.936,90.523z"/>
	<path d="M24.413,69.184v3.949c0,0.242,0.055,0.424,0.164,0.545s0.305,0.221,0.586,0.299v0.375h-3.727v-0.375
		c0.289-0.078,0.486-0.178,0.592-0.299c0.105-0.12,0.158-0.302,0.158-0.544v-7.583h0.375c0.078,0.277,0.18,0.471,0.305,0.583
		c0.125,0.111,0.309,0.167,0.551,0.167h3.281c0.242,0,0.426-0.054,0.551-0.162c0.125-0.107,0.227-0.303,0.305-0.588h0.293
		c1.734,3.037,2.602,5.98,2.602,8.83c-0.001,2.584-0.614,4.692-1.841,6.324c-1.547,2.053-3.695,3.08-6.445,3.08
		c-2.563,0-4.602-0.914-6.117-2.742c-1.438-1.734-2.156-4.039-2.155-6.914c0-0.914,0.084-1.775,0.252-2.584s0.451-1.729,0.85-2.76
		c0.211-0.531,0.316-0.91,0.316-1.137c0-0.164-0.09-0.355-0.27-0.574l0.176-0.328l3.832,1.881l-0.175,0.34
		c-0.257,0.008-0.441,0.043-0.554,0.105c-0.113,0.063-0.251,0.203-0.414,0.422c-0.358,0.477-0.663,1.175-0.916,2.096
		c-0.253,0.922-0.379,1.793-0.379,2.612c-0.001,1.671,0.468,3.058,1.403,4.158c1.062,1.241,2.463,1.862,4.203,1.862
		c1.686,0,3.048-0.605,4.086-1.816c0.951-1.109,1.428-2.57,1.429-4.383c0-0.883-0.102-1.754-0.305-2.613s-0.48-1.602-0.832-2.227
		H24.413z"/>
	<path d="M23.147,58.578h4.383V48.289c0-0.234-0.055-0.414-0.164-0.539s-0.305-0.227-0.586-0.305V47.07h4.137v0.375
		c-0.281,0.078-0.477,0.18-0.586,0.305s-0.164,0.305-0.164,0.539V62.82h-0.375c-0.078-0.281-0.18-0.477-0.305-0.586
		s-0.309-0.164-0.551-0.164H15.401c-0.242,0-0.426,0.055-0.551,0.164s-0.227,0.305-0.305,0.586h-0.375V48.57
		c0-0.234-0.056-0.414-0.167-0.539s-0.306-0.227-0.583-0.305v-0.375h4.137v0.375c-0.277,0.078-0.473,0.18-0.583,0.305
		c-0.111,0.125-0.167,0.305-0.167,0.539v10.008h3.797v-6.492c0-0.234-0.055-0.414-0.164-0.539s-0.305-0.227-0.586-0.305v-0.375
		h4.043v0.375c-0.273,0.078-0.467,0.18-0.58,0.305s-0.17,0.305-0.17,0.539V58.578z"/>
	<path d="M30.167,34.736l-11.051,5.9h9.82c0.242,0,0.426-0.055,0.551-0.164s0.227-0.305,0.305-0.586h0.375v4.699h-0.375
		c-0.078-0.281-0.18-0.477-0.305-0.586s-0.309-0.164-0.551-0.164H15.39c-0.234,0-0.414,0.055-0.539,0.164s-0.227,0.305-0.305,0.586
		h-0.375V38.42h0.375c0.094,0.367,0.309,0.551,0.645,0.551c0.156,0,0.336-0.055,0.539-0.164l8.269-4.363l-8.128-4.422
		c-0.359-0.195-0.621-0.293-0.785-0.293c-0.32,0-0.5,0.195-0.539,0.586h-0.375v-6.048h0.375c0.078,0.281,0.18,0.477,0.305,0.586
		s0.305,0.164,0.539,0.164h13.547c0.242,0,0.426-0.055,0.551-0.164s0.227-0.305,0.305-0.586h0.375v4.992h-0.375
		c-0.07-0.273-0.17-0.467-0.299-0.58s-0.314-0.17-0.557-0.17h-9.82L30.167,34.736z"/>
	<path d="M26.09,9.677v7.271l2.249,1.077c0.313,0.148,0.559,0.223,0.738,0.223c0.344,0,0.582-0.261,0.715-0.784h0.375v5.291h-0.375
		c-0.063-0.313-0.172-0.551-0.328-0.715s-0.461-0.352-0.914-0.563l-12.292-5.883c-0.391-0.188-0.703-0.281-0.938-0.281
		c-0.359,0-0.617,0.227-0.773,0.68h-0.375V10.32h0.375c0.133,0.461,0.363,0.691,0.691,0.691c0.227,0,0.484-0.074,0.773-0.223
		L28.34,4.695c0.523-0.258,0.881-0.484,1.072-0.68s0.318-0.457,0.381-0.785h0.375v5.889h-0.375
		c-0.086-0.517-0.328-0.776-0.727-0.776c-0.164,0-0.406,0.078-0.727,0.234L26.09,9.677z M23.898,10.682L18.2,13.275l5.698,2.636
		V10.682z"/>
	<path d="M16.809-4.797h12.129c0.242,0,0.426-0.055,0.551-0.164s0.227-0.305,0.305-0.586h0.375v4.992h-0.375
		c-0.078-0.281-0.18-0.477-0.305-0.586s-0.309-0.164-0.551-0.164H16.809v4.969c0,0.234,0.054,0.414,0.161,0.539
		c0.106,0.125,0.304,0.227,0.589,0.305v0.375h-4.137V4.508c0.285-0.086,0.48-0.189,0.589-0.311c0.107-0.121,0.161-0.299,0.161-0.533
		V-9.754c0-0.242-0.054-0.426-0.161-0.551c-0.108-0.125-0.304-0.227-0.589-0.305v-0.375h4.137v0.375
		c-0.285,0.078-0.482,0.18-0.589,0.305c-0.107,0.125-0.161,0.309-0.161,0.551V-4.797z"/>
</g>
</svg>
